{
  "Actor": {
    "types": ["character", "npc", "vehicle", "haunt", "trap"],
    "htmlFields": ["details.notes.value", "details.biography.value"],
    "templates": {
      "notes": {
        "details": {
          "notes": {
            "value": ""
          }
        }
      },
      "common": {
        "abilities": {
          "str": {
            "value": 10,
            "damage": 0,
            "drain": 0,
            "userPenalty": 0
          },
          "dex": {
            "value": 10,
            "damage": 0,
            "drain": 0,
            "userPenalty": 0
          },
          "con": {
            "value": 10,
            "damage": 0,
            "drain": 0,
            "userPenalty": 0
          },
          "int": {
            "value": 10,
            "damage": 0,
            "drain": 0,
            "userPenalty": 0
          },
          "wis": {
            "value": 10,
            "damage": 0,
            "drain": 0,
            "userPenalty": 0
          },
          "cha": {
            "value": 10,
            "damage": 0,
            "drain": 0,
            "userPenalty": 0
          }
        },
        "attributes": {
          "hpAbility": "con",
          "cmbAbility": "str",
          "naturalAC": 0,
          "ac": {
            "normal": {
              "ability": "dex"
            },
            "touch": {
              "ability": "dex"
            },
            "flatFooted": {}
          },
          "cmd": {
            "strAbility": "str",
            "dexAbility": "dex"
          },
          "sr": {
            "formula": ""
          },
          "clCheck": false,
          "saveNotes": "",
          "acNotes": "",
          "cmdNotes": "",
          "srNotes": "",
          "attack": {
            "meleeAbility": "str",
            "rangedAbility": "dex"
          },
          "energyDrain": 0,
          "quadruped": null,
          "savingThrows": {
            "fort": {
              "base": 0,
              "ability": "con"
            },
            "ref": {
              "base": 0,
              "ability": "dex"
            },
            "will": {
              "base": 0,
              "ability": "wis"
            }
          },
          "hp": {
            "temp": 0,
            "nonlethal": 0,
            "offset": 0
          },
          "wounds": {
            "offset": 0
          },
          "vigor": {
            "temp": 0,
            "offset": 0
          },
          "init": {
            "value": 0,
            "ability": "dex"
          },
          "speed": {
            "land": {
              "base": 30
            },
            "climb": {
              "base": 0
            },
            "swim": {
              "base": 0
            },
            "burrow": {
              "base": 0
            },
            "fly": {
              "base": 0,
              "maneuverability": "average"
            }
          },
          "spells": {
            "spellbooks": {
              "primary": {
                "name": "",
                "inUse": false,
                "castPerDayAllOffsetFormula": "",
                "preparedAllOffsetFormula": "",
                "casterType": "high",
                "class": "",
                "cl": {
                  "formula": ""
                },
                "concentrationFormula": "",
                "concentrationNotes": "",
                "clNotes": "",
                "ability": "int",
                "autoSpellLevelCalculation": true,
                "autoSpellLevels": true,
                "psychic": false,
                "arcaneSpellFailure": true,
                "hasCantrips": true,
                "spellPreparationMode": "spontaneous",
                "baseDCFormula": "10 + @sl + @ablMod",
                "spellPoints": {
                  "useSystem": false,
                  "value": 0,
                  "maxFormula": "",
                  "restoreFormula": ""
                },
                "spells": {
                  "spell0": {
                    "castPerDayOffsetFormula": "",
                    "preparedOffsetFormula": ""
                  },
                  "spell1": {
                    "castPerDayOffsetFormula": "",
                    "preparedOffsetFormula": ""
                  },
                  "spell2": {
                    "castPerDayOffsetFormula": "",
                    "preparedOffsetFormula": ""
                  },
                  "spell3": {
                    "castPerDayOffsetFormula": "",
                    "preparedOffsetFormula": ""
                  },
                  "spell4": {
                    "castPerDayOffsetFormula": "",
                    "preparedOffsetFormula": ""
                  },
                  "spell5": {
                    "castPerDayOffsetFormula": "",
                    "preparedOffsetFormula": ""
                  },
                  "spell6": {
                    "castPerDayOffsetFormula": "",
                    "preparedOffsetFormula": ""
                  },
                  "spell7": {
                    "castPerDayOffsetFormula": "",
                    "preparedOffsetFormula": ""
                  },
                  "spell8": {
                    "castPerDayOffsetFormula": "",
                    "preparedOffsetFormula": ""
                  },
                  "spell9": {
                    "castPerDayOffsetFormula": "",
                    "preparedOffsetFormula": ""
                  }
                },
                "spellSlotAbilityBonusFormula": "",
                "domainSlotValue": 1
              },
              "secondary": {
                "name": "",
                "inUse": false,
                "castPerDayAllOffsetFormula": "",
                "preparedAllOffsetFormula": "",
                "casterType": "high",
                "class": "",
                "cl": {
                  "formula": ""
                },
                "concentrationFormula": "",
                "concentrationNotes": "",
                "clNotes": "",
                "ability": "int",
                "autoSpellLevelCalculation": true,
                "autoSpellLevels": true,
                "psychic": false,
                "arcaneSpellFailure": true,
                "hasCantrips": true,
                "spellPreparationMode": "spontaneous",
                "baseDCFormula": "10 + @sl + @ablMod",
                "spellPoints": {
                  "useSystem": false,
                  "value": 0,
                  "maxFormula": "",
                  "restoreFormula": ""
                },
                "spells": {
                  "spell0": {
                    "castPerDayOffsetFormula": "",
                    "preparedOffsetFormula": ""
                  },
                  "spell1": {
                    "castPerDayOffsetFormula": "",
                    "preparedOffsetFormula": ""
                  },
                  "spell2": {
                    "castPerDayOffsetFormula": "",
                    "preparedOffsetFormula": ""
                  },
                  "spell3": {
                    "castPerDayOffsetFormula": "",
                    "preparedOffsetFormula": ""
                  },
                  "spell4": {
                    "castPerDayOffsetFormula": "",
                    "preparedOffsetFormula": ""
                  },
                  "spell5": {
                    "castPerDayOffsetFormula": "",
                    "preparedOffsetFormula": ""
                  },
                  "spell6": {
                    "castPerDayOffsetFormula": "",
                    "preparedOffsetFormula": ""
                  },
                  "spell7": {
                    "castPerDayOffsetFormula": "",
                    "preparedOffsetFormula": ""
                  },
                  "spell8": {
                    "castPerDayOffsetFormula": "",
                    "preparedOffsetFormula": ""
                  },
                  "spell9": {
                    "castPerDayOffsetFormula": "",
                    "preparedOffsetFormula": ""
                  }
                },
                "spellSlotAbilityBonusFormula": "",
                "domainSlotValue": 1
              },
              "tertiary": {
                "name": "",
                "inUse": false,
                "castPerDayAllOffsetFormula": "",
                "preparedAllOffsetFormula": "",
                "casterType": "high",
                "class": "",
                "cl": {
                  "formula": ""
                },
                "concentrationFormula": "",
                "concentrationNotes": "",
                "clNotes": "",
                "ability": "int",
                "autoSpellLevelCalculation": true,
                "autoSpellLevels": true,
                "psychic": false,
                "arcaneSpellFailure": true,
                "hasCantrips": true,
                "spellPreparationMode": "spontaneous",
                "baseDCFormula": "10 + @sl + @ablMod",
                "spellPoints": {
                  "useSystem": false,
                  "value": 0,
                  "maxFormula": "",
                  "restoreFormula": ""
                },
                "spells": {
                  "spell0": {
                    "castPerDayOffsetFormula": "",
                    "preparedOffsetFormula": ""
                  },
                  "spell1": {
                    "castPerDayOffsetFormula": "",
                    "preparedOffsetFormula": ""
                  },
                  "spell2": {
                    "castPerDayOffsetFormula": "",
                    "preparedOffsetFormula": ""
                  },
                  "spell3": {
                    "castPerDayOffsetFormula": "",
                    "preparedOffsetFormula": ""
                  },
                  "spell4": {
                    "castPerDayOffsetFormula": "",
                    "preparedOffsetFormula": ""
                  },
                  "spell5": {
                    "castPerDayOffsetFormula": "",
                    "preparedOffsetFormula": ""
                  },
                  "spell6": {
                    "castPerDayOffsetFormula": "",
                    "preparedOffsetFormula": ""
                  },
                  "spell7": {
                    "castPerDayOffsetFormula": "",
                    "preparedOffsetFormula": ""
                  },
                  "spell8": {
                    "castPerDayOffsetFormula": "",
                    "preparedOffsetFormula": ""
                  },
                  "spell9": {
                    "castPerDayOffsetFormula": "",
                    "preparedOffsetFormula": ""
                  }
                },
                "spellSlotAbilityBonusFormula": "",
                "domainSlotValue": 1
              },
              "spelllike": {
                "name": "",
                "inUse": false,
                "castPerDayAllOffsetFormula": "",
                "preparedAllOffsetFormula": "",
                "casterType": "high",
                "class": "_hd",
                "cl": {
                  "formula": ""
                },
                "concentrationFormula": "",
                "concentrationNotes": "",
                "clNotes": "",
                "ability": "cha",
                "autoSpellLevelCalculation": true,
                "autoSpellLevels": true,
                "psychic": false,
                "arcaneSpellFailure": true,
                "hasCantrips": true,
                "spellPreparationMode": "spontaneous",
                "baseDCFormula": "10 + @sl + @ablMod",
                "spellPoints": {
                  "useSystem": false,
                  "value": 0,
                  "maxFormula": "",
                  "restoreFormula": ""
                },
                "spells": {
                  "spell0": {
                    "castPerDayOffsetFormula": "",
                    "preparedOffsetFormula": ""
                  },
                  "spell1": {
                    "castPerDayOffsetFormula": "",
                    "preparedOffsetFormula": ""
                  },
                  "spell2": {
                    "castPerDayOffsetFormula": "",
                    "preparedOffsetFormula": ""
                  },
                  "spell3": {
                    "castPerDayOffsetFormula": "",
                    "preparedOffsetFormula": ""
                  },
                  "spell4": {
                    "castPerDayOffsetFormula": "",
                    "preparedOffsetFormula": ""
                  },
                  "spell5": {
                    "castPerDayOffsetFormula": "",
                    "preparedOffsetFormula": ""
                  },
                  "spell6": {
                    "castPerDayOffsetFormula": "",
                    "preparedOffsetFormula": ""
                  },
                  "spell7": {
                    "castPerDayOffsetFormula": "",
                    "preparedOffsetFormula": ""
                  },
                  "spell8": {
                    "castPerDayOffsetFormula": "",
                    "preparedOffsetFormula": ""
                  },
                  "spell9": {
                    "castPerDayOffsetFormula": "",
                    "preparedOffsetFormula": ""
                  }
                },
                "spellSlotAbilityBonusFormula": "",
                "domainSlotValue": 1
              }
            }
          }
        },
        "details": {
          "height": "",
          "weight": "",
          "gender": "",
          "deity": "",
          "age": "",
          "alignment": "tn",
          "biography": {
            "value": ""
          },
          "bonusFeatFormula": "",
          "bonusSkillRankFormula": "",
          "carryCapacity": {
            "bonus": {
              "user": 0
            },
            "multiplier": {
              "base": 1,
              "user": 0
            }
          }
        },
        "skills": {
          "acr": {
            "ability": "dex",
            "rt": false,
            "acp": true,
            "rank": 0
          },
          "apr": {
            "ability": "int",
            "rt": false,
            "acp": false,
            "rank": 0
          },
          "art": {
            "ability": "int",
            "rt": false,
            "acp": false,
            "rank": 0
          },
          "blf": {
            "ability": "cha",
            "rt": false,
            "acp": false,
            "rank": 0
          },
          "clm": {
            "ability": "str",
            "rt": false,
            "acp": true,
            "rank": 0
          },
          "crf": {
            "ability": "int",
            "rt": false,
            "acp": false,
            "rank": 0
          },
          "dip": {
            "ability": "cha",
            "rt": false,
            "acp": false,
            "rank": 0
          },
          "dev": {
            "ability": "dex",
            "rt": true,
            "acp": true,
            "rank": 0
          },
          "dis": {
            "ability": "cha",
            "rt": false,
            "acp": false,
            "rank": 0
          },
          "esc": {
            "ability": "dex",
            "rt": false,
            "acp": true,
            "rank": 0
          },
          "fly": {
            "ability": "dex",
            "rt": false,
            "acp": true,
            "rank": 0
          },
          "han": {
            "ability": "cha",
            "rt": true,
            "acp": false,
            "rank": 0
          },
          "hea": {
            "ability": "wis",
            "rt": false,
            "acp": false,
            "rank": 0
          },
          "int": {
            "ability": "cha",
            "rt": false,
            "acp": false,
            "rank": 0
          },
          "kar": {
            "ability": "int",
            "rt": true,
            "acp": false,
            "rank": 0
          },
          "kdu": {
            "ability": "int",
            "rt": true,
            "acp": false,
            "rank": 0
          },
          "ken": {
            "ability": "int",
            "rt": true,
            "acp": false,
            "rank": 0
          },
          "kge": {
            "ability": "int",
            "rt": true,
            "acp": false,
            "rank": 0
          },
          "khi": {
            "ability": "int",
            "rt": true,
            "acp": false,
            "rank": 0
          },
          "klo": {
            "ability": "int",
            "rt": true,
            "acp": false,
            "rank": 0
          },
          "kna": {
            "ability": "int",
            "rt": true,
            "acp": false,
            "rank": 0
          },
          "kno": {
            "ability": "int",
            "rt": true,
            "acp": false,
            "rank": 0
          },
          "kpl": {
            "ability": "int",
            "rt": true,
            "acp": false,
            "rank": 0
          },
          "kre": {
            "ability": "int",
            "rt": true,
            "acp": false,
            "rank": 0
          },
          "lin": {
            "ability": "int",
            "rt": true,
            "acp": false,
            "rank": 0
          },
          "lor": {
            "ability": "int",
            "rt": true,
            "acp": false,
            "rank": 0
          },
          "per": {
            "ability": "wis",
            "rt": false,
            "acp": false,
            "rank": 0
          },
          "prf": {
            "ability": "cha",
            "rt": false,
            "acp": false,
            "rank": 0
          },
          "pro": {
            "ability": "wis",
            "rt": true,
            "acp": false,
            "rank": 0
          },
          "rid": {
            "ability": "dex",
            "rt": false,
            "acp": true,
            "rank": 0
          },
          "sen": {
            "ability": "wis",
            "rt": false,
            "acp": false,
            "rank": 0
          },
          "slt": {
            "ability": "dex",
            "rt": true,
            "acp": true,
            "rank": 0
          },
          "spl": {
            "ability": "int",
            "rt": true,
            "acp": false,
            "rank": 0
          },
          "ste": {
            "ability": "dex",
            "rt": false,
            "acp": true,
            "rank": 0
          },
          "sur": {
            "ability": "wis",
            "rt": false,
            "acp": false,
            "rank": 0
          },
          "swm": {
            "ability": "str",
            "rt": false,
            "acp": true,
            "rank": 0
          },
          "umd": {
            "ability": "cha",
            "rt": true,
            "acp": false,
            "rank": 0
          }
        },
        "traits": {
          "size": "med",
          "ageCategory": "adult",
          "senses": {
            "dv": {
              "value": 0
            },
            "ts": {
              "value": 0
            },
            "bs": {
              "value": 0
            },
            "bse": {
              "value": 0
            },
            "ll": {
              "enabled": false,
              "multiplier": {
                "dim": 2,
                "bright": 2
              }
            },
            "sid": false,
            "tr": {
              "value": 0
            },
            "si": false,
            "sc": {
              "value": 0
            },
            "custom": ""
          },
          "hardness": 0,
          "dr": {
            "value": [],
            "custom": ""
          },
          "eres": {
            "value": [],
            "custom": ""
          },
          "cres": "",
          "regen": "",
          "fastHealing": "",
          "languages": [],
          "di": [],
          "dv": [],
          "ci": [],
          "stature": "tall"
        },
        "currency": {
          "pp": 0,
          "gp": 0,
          "sp": 0,
          "cp": 0
        },
        "altCurrency": {
          "pp": 0,
          "gp": 0,
          "sp": 0,
          "cp": 0
        }
      },
      "cr": {
        "details": {
          "cr": {
            "base": 0
          }
        }
      }
    },
    "character": {
      "templates": ["common", "notes"],
      "details": {
        "xp": {
          "value": 0
        }
      },
      "traits": {
        "weaponProf": [],
        "armorProf": []
      }
    },
    "npc": {
      "templates": ["common", "notes", "cr"]
    }
  },
  "Item": {
    "types": [
      "weapon",
      "equipment",
      "consumable",
      "loot",
      "class",
      "spell",
      "feat",
      "buff",
      "attack",
      "race",
      "implant",
      "container"
    ],
    "htmlFields": ["description.value", "description.unidentified"],
    "templates": {
      "changes": {
        "changes": [],
        "changeFlags": {
          "immuneToMorale": false,
          "loseDexToAC": false,
          "noMediumEncumbrance": false,
          "noHeavyEncumbrance": false,
          "mediumArmorFullSpeed": false,
          "heavyArmorFullSpeed": false,
          "lowLightVision": false,
          "seeInvisibility": false,
          "seeInDarkness": false
        }
      },
      "scriptCalls": {
        "scriptCalls": []
      },
      "resource": {
        "uses": {
          "value": null,
          "per": "",
          "autoDeductChargesCost": "",
          "maxFormula": "",
          "rechargeFormula": ""
        }
      },
      "contextNotes": {
        "contextNotes": []
      },
      "description": {
        "description": {
          "value": "",
          "instructions": ""
        },
        "tags": []
      },
      "ammo": {
        "ammo": {
          "type": "",
          "capacity": null,
          "misfire": null,
          "explode": null
        }
      },
      "fragile": {
        "hp": {},
        "broken": false,
        "hardness": 0
      },
      "physical": {
        "quantity": 1,
        "weight": {
          "value": 0
        },
        "equipped": true,
        "carried": true,
        "price": 0,
        "size": "med",
        "resizing": false,
        "timeworn": false,
        "artifact": false,
        "identified": true,
        "unidentified": {
          "price": 0,
          "name": ""
        },
        "description": {
          "unidentified": ""
        },
        "cursed": false,
        "cl": 0,
        "aura": {
          "custom": false,
          "school": ""
        }
      },
      "action": {
        "actions": [],
        "attackNotes": [],
        "effectNotes": []
      },
      "links": {
        "links": {
          "children": []
        }
      },
      "inventory": {
        "items": {},
        "maxWeight": null,
        "weight": {
          "value": 0,
          "reduction": {
            "value": 0,
            "percent": null
          }
        },
        "sellMultiplier": 0.5,
        "currency": {
          "pp": 0,
          "gp": 0,
          "sp": 0,
          "cp": 0
        }
      },
      "tagged": {
        "tag": ""
      },
      "proficiencies": {
        "armorProf": [],
        "weaponProf": [],
        "languages": []
      },
      "flags": {
        "flags": {
          "boolean": {},
          "dictionary": {}
        }
      },
      "enhancable": {
        "masterwork": false,
        "enh": null
      },
      "hasAttack": {
        "proficient": false,
        "held": "1h"
      }
    },
    "class": {
      "templates": [
        "description",
        "changes",
        "contextNotes",
        "links",
        "tagged",
        "proficiencies",
        "flags",
        "scriptCalls"
      ],
      "subType": "base",
      "level": 1,
      "hd": 8,
      "hp": 8,
      "bab": "low",
      "skillsPerLevel": 0,
      "savingThrows": {
        "fort": { "value": "low" },
        "ref": { "value": "low" },
        "will": { "value": "low" }
      },
      "fc": {
        "hp": { "value": 0 },
        "skill": { "value": 0 },
        "alt": { "value": 0, "notes": "" }
      },
      "wealth": "",
      "alignment": "",
      "classSkills": {},
      "links": {
        "classAssociations": []
      }
    },
    "buff": {
      "templates": [
        "description",
        "changes",
        "contextNotes",
        "action",
        "resource",
        "links",
        "tagged",
        "flags",
        "scriptCalls"
      ],
      "subType": "temp",
      "active": false,
      "level": 0,
      "duration": {
        "value": null,
        "units": "",
        "end": ""
      },
      "conditions": [],
      "hideFromToken": false
    },
    "consumable": {
      "templates": [
        "description",
        "physical",
        "fragile",
        "resource",
        "action",
        "links",
        "tagged",
        "flags",
        "scriptCalls"
      ],
      "subType": "potion",
      "uses": {
        "pricePerUse": 0
      },
      "links": {
        "charges": []
      },
      "showInQuickbar": false
    },
    "equipment": {
      "templates": [
        "description",
        "physical",
        "fragile",
        "changes",
        "contextNotes",
        "action",
        "resource",
        "links",
        "tagged",
        "flags",
        "scriptCalls",
        "enhancable",
        "hasAttack",
        "ammo"
      ],
      "subType": "armor",
      "slot": "slotless",
      "equipmentSubtype": "lightArmor",
      "hands": 0,
      "baseTypes": [],
      "armor": {
        "value": 0,
        "dex": null,
        "acp": 0,
        "enh": 0,
        "material": {
          "base": {
            "value": "",
            "custom": false
          },
          "normal": {
            "value": "",
            "custom": false
          },
          "addon": []
        }
      },
      "spellFailure": 0,
      "links": {
        "charges": []
      },
      "showInQuickbar": false
    },
    "feat": {
      "templates": [
        "description",
        "action",
        "resource",
        "changes",
        "contextNotes",
        "links",
        "tagged",
        "proficiencies",
        "flags",
        "scriptCalls"
      ],
      "subType": "feat",
      "traitType": "",
      "traitCategory": "",
      "racePoints": null,
      "abilityType": "na",
      "associations": {
        "classes": []
      },
      "showInQuickbar": false,
      "crOffset": "",
      "inherited": false,
      "acquired": false,
      "simple": false,
      "summons": false,
      "links": {
        "charges": []
      },
      "disabled": false,
      "classSkills": {}
    },
    "loot": {
      "templates": [
        "description",
        "action",
        "physical",
        "fragile",
        "resource",
        "changes",
        "contextNotes",
        "links",
        "tagged",
        "flags",
        "scriptCalls"
      ],
      "subType": "misc",
      "extraType": "",
      "abundant": false
    },
    "spell": {
      "templates": ["description", "action", "links", "flags", "scriptCalls"],
      "learnedAt": {
        "class": {},
        "domain": {},
        "subDomain": {},
        "elementalSchool": {},
        "bloodline": {}
      },
      "level": 1,
      "clOffset": 0,
      "slOffset": 0,
      "school": "",
      "subschool": [],
      "descriptors": [],
      "components": {
        "value": "",
        "verbal": false,
        "somatic": false,
        "thought": false,
        "emotion": false,
        "material": false,
        "focus": false,
        "divineFocus": 0
      },
      "materials": {
        "value": "",
        "focus": "",
        "gpValue": 0
      },
      "spellbook": "",
      "preparation": {
        "value": 0,
        "max": 0
      },
      "uses": {
        "autoDeductChargesCost": ""
      },
      "atWill": false,
      "sr": true,
      "showInQuickbar": false,
      "domain": false,
      "slotCost": 1
    },
    "weapon": {
      "templates": [
        "description",
        "physical",
        "fragile",
        "changes",
        "contextNotes",
        "action",
        "resource",
        "links",
        "tagged",
        "flags",
        "scriptCalls",
        "enhancable",
        "hasAttack",
        "ammo"
      ],
      "subType": "simple",
      "weaponSubtype": "light",
      "hands": 1,
      "baseTypes": [],
      "weaponGroups": [],
      "material": {
        "base": {
          "value": "",
          "custom": false
        },
        "normal": {
          "value": "",
          "custom": false
        },
        "addon": []
      },
      "properties": {},
      "showInQuickbar": true
    },
    "attack": {
      "templates": [
        "description",
        "action",
        "links",
        "tagged",
        "flags",
        "resource",
        "scriptCalls",
        "enhancable",
        "hasAttack",
        "ammo"
      ],
      "subType": "",
      "baseTypes": [],
      "broken": false,
      "links": {
        "charges": []
      },
      "weaponGroups": [],
      "showInQuickbar": true
    },
    "race": {
      "templates": ["description", "changes", "contextNotes", "links", "proficiencies", "flags", "scriptCalls"],
      "size": "med",
      "speeds": {
        "land": null,
        "fly": null,
        "flyManeuverability": "",
        "swim": null,
        "climb": null,
        "burrow": null
      }
    },
    "implant": {
      "templates": [
        "description",
        "changes",
        "contextNotes",
        "resource",
        "links",
        "flags",
        "scriptCalls",
        "tagged",
        "action",
        "physical"
      ],
      "subType": "",
      "implant": null,
      "install": null,
      "implanted": false,
      "slot": "none",
      "quantity": 1,
      "weight": {
        "value": 0
      },
      "price": 0,
      "size": "med",
      "resizing": false,
      "timeworn": false,
      "artifact": false,
      "cursed": false,
      "carried": true,
      "cl": 0,
      "aura": {
        "custom": false,
        "school": ""
      }
    },
    "container": {
      "templates": ["description", "changes", "contextNotes", "physical", "fragile", "inventory", "tagged", "flags"],
      "items": {}
    }
  }
}
